name="AccessoryFramework.apk" info_1="e8a71c3e5138520361de78048d6674b2" info_2="16e5c3459f965b0003043ed074e50744" location="priv-app/AccessoryFramework/AccessoryFramework.apk"
name="Aod.apk" info_1="e8a71c3e5138520361de78048d6674b2" info_2="16e5c3459f965b0003043ed074e50744" location="app/Aod/Aod.apk"
name="BackupAndRestore.apk" info_1="737bfa449bcb3eda3736a87d00cca982" info_2="65b55f10bf2d77dc8a5aa58d8d8a18d0" location="del-app/BackupAndRestore/BackupAndRestore.apk"
name="COSA.apk" info_1="e8a71c3e5138520361de78048d6674b2" info_2="16e5c3459f965b0003043ed074e50744" location="app/COSA/COSA.apk"
name="Calculator2.apk" info_1="737bfa449bcb3eda3736a87d00cca982" info_2="65b55f10bf2d77dc8a5aa58d8d8a18d0" location="app/Calculator2/Calculator2.apk"
name="ChildrenSpace.apk" info_1="737bfa449bcb3eda3736a87d00cca982" info_2="65b55f10bf2d77dc8a5aa58d8d8a18d0" location="app/ChildrenSpace/ChildrenSpace.apk"
name="Clock.apk" info_1="737bfa449bcb3eda3736a87d00cca982" info_2="65b55f10bf2d77dc8a5aa58d8d8a18d0" location="app/Clock/Clock.apk"
name="ColorfulEngine.apk" info_1="c3833dbad48a0fd077a60142e151e720" info_2="d204c659939c729c26bedd6131df6339" location="priv-app/ColorfulEngine/ColorfulEngine.apk"
name="Cota.apk" info_1="e8a71c3e5138520361de78048d6674b2" info_2="16e5c3459f965b0003043ed074e50744" location="priv-app/Cota/Cota.apk"
name="DCS.apk" info_1="e8a71c3e5138520361de78048d6674b2" info_2="16e5c3459f965b0003043ed074e50744" location="priv-app/DCS/DCS.apk"
name="FileEncryption.apk" info_1="737bfa449bcb3eda3736a87d00cca982" info_2="65b55f10bf2d77dc8a5aa58d8d8a18d0" location="app/FileEncryption/FileEncryption.apk"
name="FileManager.apk" info_1="737bfa449bcb3eda3736a87d00cca982" info_2="65b55f10bf2d77dc8a5aa58d8d8a18d0" location="app/FileManager/FileManager.apk"
name="FloatAssistant.apk" info_1="737bfa449bcb3eda3736a87d00cca982" info_2="65b55f10bf2d77dc8a5aa58d8d8a18d0" location="app/FloatAssistant/FloatAssistant.apk"
name="GamePerformanceOpt.apk" info_1="e8a71c3e5138520361de78048d6674b2" info_2="16e5c3459f965b0003043ed074e50744" location="plugin/GamePerformanceOpt/GamePerformanceOpt.apk"
name="Games.apk" info_1="e8a71c3e5138520361de78048d6674b2" info_2="16e5c3459f965b0003043ed074e50744" location="priv-app/Games/Games.apk"
name="HealthCheck.apk" info_1="737bfa449bcb3eda3736a87d00cca982" info_2="65b55f10bf2d77dc8a5aa58d8d8a18d0" location="app/HealthCheck/HealthCheck.apk"
name="HeyCast.apk" info_1="e8a71c3e5138520361de78048d6674b2" info_2="16e5c3459f965b0003043ed074e50744" location="priv-app/HeyCast/HeyCast.apk"
name="HeySynergy.apk" info_1="e8a71c3e5138520361de78048d6674b2" info_2="16e5c3459f965b0003043ed074e50744" location="priv-app/HeySynergy/HeySynergy.apk"
name="Karaoke.apk" info_1="052a91686dcda693ea07232032b8dc25" info_2="13c91d742331110dc5816bd4bee6a6fa" location="app/Karaoke/Karaoke.apk"
name="KeKePay.apk" info_1="e8a71c3e5138520361de78048d6674b2" info_2="16e5c3459f965b0003043ed074e50744" location="app/KeKePay/KeKePay.apk"
name="LocationProxy.apk" info_1="e8a71c3e5138520361de78048d6674b2" info_2="16e5c3459f965b0003043ed074e50744" location="app/LocationProxy/LocationProxy.apk"
name="LockAssistant.apk" info_1="737bfa449bcb3eda3736a87d00cca982" info_2="65b55f10bf2d77dc8a5aa58d8d8a18d0" location="priv-app/LockAssistant/LockAssistant.apk"
name="MDSService.apk" info_1="e8a71c3e5138520361de78048d6674b2" info_2="16e5c3459f965b0003043ed074e50744" location="priv-app/MDSService/MDSService.apk"
name="Music.apk" info_1="10833051547c37c794b7895b6beeadb5" info_2="87a731859a65c419a8ddc6c657dc4bff" location="app/Music/Music.apk"
name="NewSoundRecorder.apk" info_1="737bfa449bcb3eda3736a87d00cca982" info_2="65b55f10bf2d77dc8a5aa58d8d8a18d0" location="app/NewSoundRecorder/NewSoundRecorder.apk"
name="OBrain.apk" info_1="609343c51bbce9849561f1d6d36983e7" info_2="258d59d4b2ae9e646537365ac4a627a5" location="non_overlay/app/OBrain/OBrain.apk"
name="ONet.apk" info_1="e8a71c3e5138520361de78048d6674b2" info_2="16e5c3459f965b0003043ed074e50744" location="priv-app/ONet/ONet.apk"
name="OPSynergy.apk" info_1="e8a71c3e5138520361de78048d6674b2" info_2="16e5c3459f965b0003043ed074e50744" location="priv-app/OPSynergy/OPSynergy.apk"
name="OShare.apk" info_1="737bfa449bcb3eda3736a87d00cca982" info_2="65b55f10bf2d77dc8a5aa58d8d8a18d0" location="priv-app/OShare/OShare.apk"
name="Omacp.apk" info_1="e8a71c3e5138520361de78048d6674b2" info_2="16e5c3459f965b0003043ed074e50744" location="priv-app/Omacp/Omacp.apk"
name="OpenCapabilityService.apk" info_1="737bfa449bcb3eda3736a87d00cca982" info_2="65b55f10bf2d77dc8a5aa58d8d8a18d0" location="app/OpenCapabilityService/OpenCapabilityService.apk"
name="OplusBootReg.apk" info_1="737bfa449bcb3eda3736a87d00cca982" info_2="65b55f10bf2d77dc8a5aa58d8d8a18d0" location="priv-app/OplusBootReg/OplusBootReg.apk"
name="OplusOperationManual.apk" info_1="737bfa449bcb3eda3736a87d00cca982" info_2="65b55f10bf2d77dc8a5aa58d8d8a18d0" location="app/OplusOperationManual/OplusOperationManual.apk"
name="OplusScreenRecorder.apk" info_1="e8a71c3e5138520361de78048d6674b2" info_2="16e5c3459f965b0003043ed074e50744" location="priv-app/OplusScreenRecorder/OplusScreenRecorder.apk"
name="OplusSecurityKeyboard.apk" info_1="e8a71c3e5138520361de78048d6674b2" info_2="16e5c3459f965b0003043ed074e50744" location="app/OplusSecurityKeyboard/OplusSecurityKeyboard.apk"
name="OppoCompass2.apk" info_1="737bfa449bcb3eda3736a87d00cca982" info_2="65b55f10bf2d77dc8a5aa58d8d8a18d0" location="app/OppoCompass2/OppoCompass2.apk"
name="OppoGallery2.apk" info_1="737bfa449bcb3eda3736a87d00cca982" info_2="65b55f10bf2d77dc8a5aa58d8d8a18d0" location="priv-app/OppoGallery2/OppoGallery2.apk"
name="OppoNote2.apk" info_1="737bfa449bcb3eda3736a87d00cca982" info_2="65b55f10bf2d77dc8a5aa58d8d8a18d0" location="del-app/OppoNote2/OppoNote2.apk"
name="OppoWeather2.apk" info_1="737bfa449bcb3eda3736a87d00cca982" info_2="65b55f10bf2d77dc8a5aa58d8d8a18d0" location="app/OppoWeather2/OppoWeather2.apk"
name="OppoWeatherService.apk" info_1="6c4ff098f18677245e832d8fca6df024" info_2="2be1cdcac43ae9e4812b76753e66e5f4" location="app/OppoWeatherService/OppoWeatherService.apk"
name="PhoneManager.apk" info_1="737bfa449bcb3eda3736a87d00cca982" info_2="65b55f10bf2d77dc8a5aa58d8d8a18d0" location="priv-app/PhoneManager/PhoneManager.apk"
name="Portrait.apk" info_1="e8a71c3e5138520361de78048d6674b2" info_2="16e5c3459f965b0003043ed074e50744" location="app/Portrait/Portrait.apk"
name="RomUpdate.apk" info_1="e8a71c3e5138520361de78048d6674b2" info_2="16e5c3459f965b0003043ed074e50744" location="app/RomUpdate/RomUpdate.apk"
name="SOSHelper.apk" info_1="e8a71c3e5138520361de78048d6674b2" info_2="16e5c3459f965b0003043ed074e50744" location="priv-app/SOSHelper/SOSHelper.apk"
name="SceneMode.apk" info_1="737bfa449bcb3eda3736a87d00cca982" info_2="65b55f10bf2d77dc8a5aa58d8d8a18d0" location="app/SceneMode/SceneMode.apk"
name="Screenshot.apk" info_1="e8a71c3e5138520361de78048d6674b2" info_2="16e5c3459f965b0003043ed074e50744" location="priv-app/Screenshot/Screenshot.apk"
name="SecurePay.apk" info_1="737bfa449bcb3eda3736a87d00cca982" info_2="65b55f10bf2d77dc8a5aa58d8d8a18d0" location="app/SecurePay/SecurePay.apk"
name="SecurityAnalysis.apk" info_1="737bfa449bcb3eda3736a87d00cca982" info_2="65b55f10bf2d77dc8a5aa58d8d8a18d0" location="app/SecurityAnalysis/SecurityAnalysis.apk"
name="SmartEngine.apk" info_1="e8a71c3e5138520361de78048d6674b2" info_2="16e5c3459f965b0003043ed074e50744" location="app/SmartEngine/SmartEngine.apk"
name="SmartSideBar.apk" info_1="737bfa449bcb3eda3736a87d00cca982" info_2="65b55f10bf2d77dc8a5aa58d8d8a18d0" location="app/SmartSideBar/SmartSideBar.apk"
name="VariUIEngine.apk" info_1="e8a71c3e5138520361de78048d6674b2" info_2="16e5c3459f965b0003043ed074e50744" location="app/VariUIEngine/VariUIEngine.apk"
name="VideoGallery.apk" info_1="4d925563f964595671c5647734160375" info_2="e3dc0a3519e774e4512415780d9ceddc" location="priv-app/VideoGallery/VideoGallery.apk"
name="Wallpapers.apk" info_1="e8a71c3e5138520361de78048d6674b2" info_2="16e5c3459f965b0003043ed074e50744" location="app/Wallpapers/Wallpapers.apk"
name="WellbeingAssistant.apk" info_1="737bfa449bcb3eda3736a87d00cca982" info_2="65b55f10bf2d77dc8a5aa58d8d8a18d0" location="app/WellbeingAssistant/WellbeingAssistant.apk"
name="realmeMovieShot.apk" info_1="737bfa449bcb3eda3736a87d00cca982" info_2="65b55f10bf2d77dc8a5aa58d8d8a18d0" location="app/realmeMovieShot/realmeMovieShot.apk"
